{
  "profiles": {
    "Otus.Teaching.PromocodeFactory.WebHost": {
      "commandName": "Project",
      "launchBrowser": true,
      "launchUrl": "swagger/index.html",
      "environmentVariables": {
        "ASPNETCORE_ENVIRONMENT": "Development"
      },
      "applicationUrl": "http://localhost:8098"
    },
    "Docker": {
      "commandName": "Docker",
      "launchBrowser": true,
      "launchUrl": "{Scheme}://{ServiceHost}:{ServicePort}/swagger/index.html",
      "publishAllPorts": true
    }
  }
}